#include  <reg52.h>  
char getCharacter (void);        
void sendCharacter (char);
void cct_init(void);
void Delay(int);
sbit Led1 = P2^0;
  

main()
{
      char        chr;        /* variable to hold characters in */
 
      SCON = 0x50;                /* mode 1, 8-bit uart, enable receiver */
      TMOD = 0x20;                /* timer 1, mode 2, 8-bit reload */
      TH1  = 0xFE;                /* reload value for 2400 baud */
      TR1  = 1;
      TI  = 1;
      while (1==1)
        {
             
              /* read the next character from the serial port */
 
              chr = getCharacter ();
 
              /* send it back to the original sender */
 
              sendCharacter (chr);
        }
}
 char getCharacter (void)
{
      
      char chr;        /* variable to hold the new character */
      while (RI != 1) {;}
      chr = SBUF;
      RI = 0;
      if (getCharacter ==('1'));
    
      Led1 = 1;                             

      Delay(1000);      

      Led1 = 0;  
      return(chr);
      
     // if (Led1 == ('1'));
     // sendCharacter('o'); 
}
 
 
void sendCharacter
(
    char        chr        /* character to send */
)
{
     
      
      while (TI != 1) {;}
      TI = 0;
      SBUF = chr;
      return;
      
}
void cct_init(void)   //initialize cct
{
    P0 = 0XFF; //not used
    P1 = 0x00; //Used for Appliances
    P2 = 0x00; //not used
    P3 = 0x03; //used for serial
      
}
void Delay(int k)

{

int j;

int i;

for(i=0;i<k;i++)

  {

for(j=0;j<100;j++)

    {

    }

  }

}